{
    "type": "service_account",
    "project_id": "newagent-9d822",
    "private_key_id": "a7ec534005b441bf68db1560c46b8a4e27fa1794",
    "private_key": "-----BEGIN PRIVATE KEY-----\nMIIEvQIBADANBgkqhkiG9w0BAQEFAASCBKcwggSjAgEAAoIBAQC7xVgfGHTfaj2N\njXGye3SnCuOGSqGcJYZ/jM6C0kKPaHyVj1v+hxgb0BbkpxBi79/eOjDm/8c76k5j\nkT2GsZoCSXfyKp+c5YjP+4d26IJMDAtM/lYDa6vmu8r0xDDSewY9MxFk55SL16ZG\nrl1p7lOMyCw618p6gqpoqIcH5AGUuJw3af+7m8cqE3s9/VPUCbE1cY/OMsC7GI4a\nmEXNC7LLbqtX1VHQIs2+RzJ/jIuzmw9fH8T2CtCfmF+N4wX6JoJn2qAwP1HZvlTp\nh7vHzjNYa5sVfe6fZKNXeCKrmXiNLQ1Ho5gQcEoGqCfmCnrBF4qYBVD+fbS/msF2\nDTEOtkbhAgMBAAECggEADX9Pc41vlJdfh9M88u+8EFLbIo4u+kQEnEVmmybv47zx\ncahtsYjhTdnXf3BWivTDt/F2Y5sguu4/hsQ2suiFfHhuqmYadZiBTQlUsOfgj9oG\nHkQiXNoVRVTGmhwX3Kq9ECf22N+Vq7dgwNrBT79IMF87i1pIzXrNiDrkWUfwPidR\nq11Cy8XzfrWfhHERIc3UvAy7VexQkMb1xXxBRfFSjHwZyDbyAayWaPt8tMmCDdO4\nO9iJruth1imr+cpOLlRFrOij7+AQeLbUv+sjhS5nmXF+PS1MBwp/yycTogALgHgM\n6O3MBZfBKUsOkNk3jRvu/oThQUblixwmR1yw5pmKLQKBgQD0uyWA9F3Od7Gut7mP\nsBEFLcQXjGyjM+ZhLpfBKwGcngGwDy/99y9WvvCwiXqfSHAdI7hXLrPODsx6InrM\nAmWSCaUrPXXZoZOMVd+Q1yKAsweL5Cxyps6i8Q/sQ1bD9bx6whTtc7/meCarvF3n\nyMhhPDNI/iWdb+hH3QwnGbBt5QKBgQDEasJ6ZuO7NZWD+XzOuwji6/g5JN6TB0F4\nVnhKqFZ94+uTFrhvTma981RVMh6l7G164VJ4KjF38QyOMspPf3rD5cCA3v0FbNlE\npNEfR60U9pmJEVO8xgF8NIc+jMJ0OQ3bnf7QCE12vcRPfpA6B+SAP9YxDqHesh9Y\njXsO7oTFTQKBgDKQvHYBh6RSXNcRxPhoU4vzYdHPxN6PqakovFhAL4wRpZ2f9bWO\nrixJNWf0b+6bQ/bxW3RABQytSBhwKVkfoabj8UmW4FPAK8FSOOgvW0SmOQfxdDGY\nP5exIS4a18GTc4cVtMc/JEZVSwAu4mQyuxxEGQCa6mC2L5MxnAI0L5z1AoGAO2Rw\n5CRCjnRYfqytMbHasQtbZqQgbWMPR/0VqLWYWb7WmAaRxI53gM6YXJ6oJ9IDFNoX\nXuCbTsJj4oe3JyzMCXpqqE1FQyOz2w7fcU7yJlme+ZR0tqtE/bLAhoh3sD8kUplG\n2M755YLiXotNv05tqN4kvXbIOZew5Mz7PfufyC0CgYEAubrjpevfLwB2t14l7HMX\n2Tw78nwq7YJs+vc+cf6zXjdRdmehj4qtQT5sU73L2WolrWxInRqkx0xn+v53jZlR\nyqv1urZJCtbzIBSG8aWbuxaDjmM3N0gSd0PRPddCkDLXvVck69GoqGu4zVXalqde\nWNlhEfs3Ur/WeIwYCzzvHOg=\n-----END PRIVATE KEY-----\n",
    "client_email": "firebase-adminsdk-z0sxt@newagent-9d822.iam.gserviceaccount.com",
    "client_id": "104100438947042215823",
    "auth_uri": "https://accounts.google.com/o/oauth2/auth",
    "token_uri": "https://oauth2.googleapis.com/token",
    "auth_provider_x509_cert_url": "https://www.googleapis.com/oauth2/v1/certs",
    "client_x509_cert_url": "https://www.googleapis.com/robot/v1/metadata/x509/firebase-adminsdk-z0sxt%40newagent-9d822.iam.gserviceaccount.com"
  }
  